VOC2012/val/JPEGImages/2008_000034.jpg
VOC2012/val/JPEGImages/2008_000067.jpg
VOC2012/val/JPEGImages/2008_000090.jpg
VOC2012/val/JPEGImages/2008_000222.jpg
VOC2012/val/JPEGImages/2008_000223.jpg
VOC2012/val/JPEGImages/2008_000234.jpg
VOC2012/val/JPEGImages/2008_000243.jpg
VOC2012/val/JPEGImages/2008_000246.jpg
VOC2012/val/JPEGImages/2008_000261.jpg
VOC2012/val/JPEGImages/2008_000264.jpg
VOC2012/val/JPEGImages/2008_000268.jpg
VOC2012/val/JPEGImages/2008_000270.jpg
VOC2012/val/JPEGImages/2008_000278.jpg
VOC2012/val/JPEGImages/2008_000298.jpg
VOC2012/val/JPEGImages/2008_000359.jpg
VOC2012/val/JPEGImages/2008_000381.jpg
VOC2012/val/JPEGImages/2008_000398.jpg
VOC2012/val/JPEGImages/2008_000403.jpg
VOC2012/val/JPEGImages/2008_000406.jpg
VOC2012/val/JPEGImages/2008_000407.jpg
VOC2012/val/JPEGImages/2008_000418.jpg
VOC2012/val/JPEGImages/2008_000452.jpg
VOC2012/val/JPEGImages/2008_000473.jpg
VOC2012/val/JPEGImages/2008_000489.jpg
VOC2012/val/JPEGImages/2008_000510.jpg
VOC2012/val/JPEGImages/2008_000511.jpg
VOC2012/val/JPEGImages/2008_000547.jpg
VOC2012/val/JPEGImages/2008_000553.jpg
VOC2012/val/JPEGImages/2008_000562.jpg
VOC2012/val/JPEGImages/2008_000564.jpg
VOC2012/val/JPEGImages/2008_000568.jpg
VOC2012/val/JPEGImages/2008_000573.jpg
VOC2012/val/JPEGImages/2008_000579.jpg
VOC2012/val/JPEGImages/2008_000599.jpg
VOC2012/val/JPEGImages/2008_000620.jpg
VOC2012/val/JPEGImages/2008_000622.jpg
VOC2012/val/JPEGImages/2008_000647.jpg
VOC2012/val/JPEGImages/2008_000652.jpg
VOC2012/val/JPEGImages/2008_000705.jpg
VOC2012/val/JPEGImages/2008_000706.jpg
VOC2012/val/JPEGImages/2008_000714.jpg
VOC2012/val/JPEGImages/2008_000727.jpg
VOC2012/val/JPEGImages/2008_000734.jpg
VOC2012/val/JPEGImages/2008_000737.jpg
VOC2012/val/JPEGImages/2008_000780.jpg
VOC2012/val/JPEGImages/2008_000783.jpg
VOC2012/val/JPEGImages/2008_000796.jpg
VOC2012/val/JPEGImages/2008_000811.jpg
VOC2012/val/JPEGImages/2008_000825.jpg
VOC2012/val/JPEGImages/2008_000837.jpg
VOC2012/val/JPEGImages/2008_000864.jpg
VOC2012/val/JPEGImages/2008_000885.jpg
VOC2012/val/JPEGImages/2008_000904.jpg
VOC2012/val/JPEGImages/2008_000916.jpg
VOC2012/val/JPEGImages/2008_000940.jpg
VOC2012/val/JPEGImages/2008_000992.jpg
VOC2012/val/JPEGImages/2008_000993.jpg
VOC2012/val/JPEGImages/2008_001007.jpg
VOC2012/val/JPEGImages/2008_001009.jpg
VOC2012/val/JPEGImages/2008_001013.jpg
VOC2012/val/JPEGImages/2008_001028.jpg
VOC2012/val/JPEGImages/2008_001034.jpg
VOC2012/val/JPEGImages/2008_001046.jpg
VOC2012/val/JPEGImages/2008_001055.jpg
VOC2012/val/JPEGImages/2008_001063.jpg
VOC2012/val/JPEGImages/2008_001066.jpg
VOC2012/val/JPEGImages/2008_001074.jpg
VOC2012/val/JPEGImages/2008_001076.jpg
VOC2012/val/JPEGImages/2008_001089.jpg
VOC2012/val/JPEGImages/2008_001098.jpg
VOC2012/val/JPEGImages/2008_001113.jpg
VOC2012/val/JPEGImages/2008_001121.jpg
VOC2012/val/JPEGImages/2008_001139.jpg
VOC2012/val/JPEGImages/2008_001167.jpg
VOC2012/val/JPEGImages/2008_001170.jpg
VOC2012/val/JPEGImages/2008_001177.jpg
VOC2012/val/JPEGImages/2008_001183.jpg
VOC2012/val/JPEGImages/2008_001225.jpg
VOC2012/val/JPEGImages/2008_001241.jpg
VOC2012/val/JPEGImages/2008_001255.jpg
VOC2012/val/JPEGImages/2008_001284.jpg
VOC2012/val/JPEGImages/2008_001296.jpg
VOC2012/val/JPEGImages/2008_001322.jpg
VOC2012/val/JPEGImages/2008_001338.jpg
VOC2012/val/JPEGImages/2008_001344.jpg
VOC2012/val/JPEGImages/2008_001349.jpg
VOC2012/val/JPEGImages/2008_001367.jpg
VOC2012/val/JPEGImages/2008_001395.jpg
VOC2012/val/JPEGImages/2008_001401.jpg
VOC2012/val/JPEGImages/2008_001404.jpg
VOC2012/val/JPEGImages/2008_001437.jpg
VOC2012/val/JPEGImages/2008_001451.jpg
VOC2012/val/JPEGImages/2008_001470.jpg
VOC2012/val/JPEGImages/2008_001475.jpg
VOC2012/val/JPEGImages/2008_001481.jpg
VOC2012/val/JPEGImages/2008_001494.jpg
VOC2012/val/JPEGImages/2008_001540.jpg
VOC2012/val/JPEGImages/2008_001549.jpg
VOC2012/val/JPEGImages/2008_001551.jpg
VOC2012/val/JPEGImages/2008_001602.jpg
VOC2012/val/JPEGImages/2008_001607.jpg
VOC2012/val/JPEGImages/2008_001622.jpg
VOC2012/val/JPEGImages/2008_001648.jpg
VOC2012/val/JPEGImages/2008_001655.jpg
VOC2012/val/JPEGImages/2008_001659.jpg
VOC2012/val/JPEGImages/2008_001660.jpg
VOC2012/val/JPEGImages/2008_001680.jpg
VOC2012/val/JPEGImages/2008_001697.jpg
VOC2012/val/JPEGImages/2008_001702.jpg
VOC2012/val/JPEGImages/2008_001712.jpg
VOC2012/val/JPEGImages/2008_001736.jpg
VOC2012/val/JPEGImages/2008_001742.jpg
VOC2012/val/JPEGImages/2008_001745.jpg
VOC2012/val/JPEGImages/2008_001763.jpg
VOC2012/val/JPEGImages/2008_001764.jpg
VOC2012/val/JPEGImages/2008_001773.jpg
VOC2012/val/JPEGImages/2008_001782.jpg
VOC2012/val/JPEGImages/2008_001784.jpg
VOC2012/val/JPEGImages/2008_001816.jpg
VOC2012/val/JPEGImages/2008_001821.jpg
VOC2012/val/JPEGImages/2008_001838.jpg
VOC2012/val/JPEGImages/2008_001841.jpg
VOC2012/val/JPEGImages/2008_001907.jpg
VOC2012/val/JPEGImages/2008_001909.jpg
VOC2012/val/JPEGImages/2008_001919.jpg
VOC2012/val/JPEGImages/2008_001930.jpg
VOC2012/val/JPEGImages/2008_001951.jpg
VOC2012/val/JPEGImages/2008_001958.jpg
VOC2012/val/JPEGImages/2008_001965.jpg
VOC2012/val/JPEGImages/2008_001969.jpg
VOC2012/val/JPEGImages/2008_001989.jpg
VOC2012/val/JPEGImages/2008_001992.jpg
VOC2012/val/JPEGImages/2008_001998.jpg
VOC2012/val/JPEGImages/2008_002007.jpg
VOC2012/val/JPEGImages/2008_002013.jpg
VOC2012/val/JPEGImages/2008_002017.jpg
VOC2012/val/JPEGImages/2008_002021.jpg
VOC2012/val/JPEGImages/2008_002031.jpg
VOC2012/val/JPEGImages/2008_002035.jpg
VOC2012/val/JPEGImages/2008_002037.jpg
VOC2012/val/JPEGImages/2008_002039.jpg
VOC2012/val/JPEGImages/2008_002042.jpg
VOC2012/val/JPEGImages/2008_002047.jpg
VOC2012/val/JPEGImages/2008_002052.jpg
VOC2012/val/JPEGImages/2008_002069.jpg
VOC2012/val/JPEGImages/2008_002086.jpg
VOC2012/val/JPEGImages/2008_002088.jpg
VOC2012/val/JPEGImages/2008_002092.jpg
VOC2012/val/JPEGImages/2008_002098.jpg
VOC2012/val/JPEGImages/2008_002099.jpg
VOC2012/val/JPEGImages/2008_002146.jpg
VOC2012/val/JPEGImages/2008_002169.jpg
VOC2012/val/JPEGImages/2008_002172.jpg
VOC2012/val/JPEGImages/2008_002212.jpg
VOC2012/val/JPEGImages/2008_002283.jpg
VOC2012/val/JPEGImages/2008_002312.jpg
VOC2012/val/JPEGImages/2008_002314.jpg
VOC2012/val/JPEGImages/2008_002321.jpg
VOC2012/val/JPEGImages/2008_002328.jpg
VOC2012/val/JPEGImages/2008_002347.jpg
VOC2012/val/JPEGImages/2008_002378.jpg
VOC2012/val/JPEGImages/2008_002384.jpg
VOC2012/val/JPEGImages/2008_002419.jpg
VOC2012/val/JPEGImages/2008_002424.jpg
VOC2012/val/JPEGImages/2008_002428.jpg
VOC2012/val/JPEGImages/2008_002436.jpg
VOC2012/val/JPEGImages/2008_002446.jpg
VOC2012/val/JPEGImages/2008_002470.jpg
VOC2012/val/JPEGImages/2008_002495.jpg
VOC2012/val/JPEGImages/2008_002499.jpg
VOC2012/val/JPEGImages/2008_002502.jpg
VOC2012/val/JPEGImages/2008_002523.jpg
VOC2012/val/JPEGImages/2008_002526.jpg
VOC2012/val/JPEGImages/2008_002527.jpg
VOC2012/val/JPEGImages/2008_002540.jpg
VOC2012/val/JPEGImages/2008_002558.jpg
VOC2012/val/JPEGImages/2008_002564.jpg
VOC2012/val/JPEGImages/2008_002576.jpg
VOC2012/val/JPEGImages/2008_002579.jpg
VOC2012/val/JPEGImages/2008_002598.jpg
VOC2012/val/JPEGImages/2008_002599.jpg
VOC2012/val/JPEGImages/2008_002610.jpg
VOC2012/val/JPEGImages/2008_002653.jpg
VOC2012/val/JPEGImages/2008_002677.jpg
VOC2012/val/JPEGImages/2008_002715.jpg
VOC2012/val/JPEGImages/2008_002720.jpg
VOC2012/val/JPEGImages/2008_002735.jpg
VOC2012/val/JPEGImages/2008_002738.jpg
VOC2012/val/JPEGImages/2008_002751.jpg
VOC2012/val/JPEGImages/2008_002753.jpg
VOC2012/val/JPEGImages/2008_002756.jpg
VOC2012/val/JPEGImages/2008_002792.jpg
VOC2012/val/JPEGImages/2008_002801.jpg
VOC2012/val/JPEGImages/2008_002809.jpg
VOC2012/val/JPEGImages/2008_002811.jpg
VOC2012/val/JPEGImages/2008_002820.jpg
VOC2012/val/JPEGImages/2008_002829.jpg
VOC2012/val/JPEGImages/2008_002831.jpg
VOC2012/val/JPEGImages/2008_002835.jpg
VOC2012/val/JPEGImages/2008_002838.jpg
VOC2012/val/JPEGImages/2008_002843.jpg
VOC2012/val/JPEGImages/2008_002864.jpg
VOC2012/val/JPEGImages/2008_002879.jpg
VOC2012/val/JPEGImages/2008_002920.jpg
VOC2012/val/JPEGImages/2008_002929.jpg
VOC2012/val/JPEGImages/2008_002932.jpg
VOC2012/val/JPEGImages/2008_002946.jpg
VOC2012/val/JPEGImages/2008_002947.jpg
VOC2012/val/JPEGImages/2008_002956.jpg
VOC2012/val/JPEGImages/2008_002968.jpg
VOC2012/val/JPEGImages/2008_002971.jpg
VOC2012/val/JPEGImages/2008_002992.jpg
VOC2012/val/JPEGImages/2008_002999.jpg
VOC2012/val/JPEGImages/2008_003001.jpg
VOC2012/val/JPEGImages/2008_003008.jpg
VOC2012/val/JPEGImages/2008_003034.jpg
VOC2012/val/JPEGImages/2008_003062.jpg
VOC2012/val/JPEGImages/2008_003076.jpg
VOC2012/val/JPEGImages/2008_003090.jpg
VOC2012/val/JPEGImages/2008_003095.jpg
VOC2012/val/JPEGImages/2008_003132.jpg
VOC2012/val/JPEGImages/2008_003152.jpg
VOC2012/val/JPEGImages/2008_003181.jpg
VOC2012/val/JPEGImages/2008_003186.jpg
VOC2012/val/JPEGImages/2008_003193.jpg
VOC2012/val/JPEGImages/2008_003205.jpg
VOC2012/val/JPEGImages/2008_003228.jpg
VOC2012/val/JPEGImages/2008_003245.jpg
VOC2012/val/JPEGImages/2008_003280.jpg
VOC2012/val/JPEGImages/2008_003286.jpg
VOC2012/val/JPEGImages/2008_003295.jpg
VOC2012/val/JPEGImages/2008_003359.jpg
VOC2012/val/JPEGImages/2008_003361.jpg
VOC2012/val/JPEGImages/2008_003402.jpg
VOC2012/val/JPEGImages/2008_003424.jpg
VOC2012/val/JPEGImages/2008_003432.jpg
VOC2012/val/JPEGImages/2008_003433.jpg
VOC2012/val/JPEGImages/2008_003451.jpg
VOC2012/val/JPEGImages/2008_003461.jpg
VOC2012/val/JPEGImages/2008_003467.jpg
VOC2012/val/JPEGImages/2008_003472.jpg
VOC2012/val/JPEGImages/2008_003492.jpg
VOC2012/val/JPEGImages/2008_003511.jpg
VOC2012/val/JPEGImages/2008_003514.jpg
VOC2012/val/JPEGImages/2008_003526.jpg
VOC2012/val/JPEGImages/2008_003542.jpg
VOC2012/val/JPEGImages/2008_003545.jpg
VOC2012/val/JPEGImages/2008_003546.jpg
VOC2012/val/JPEGImages/2008_003565.jpg
VOC2012/val/JPEGImages/2008_003593.jpg
VOC2012/val/JPEGImages/2008_003604.jpg
VOC2012/val/JPEGImages/2008_003609.jpg
VOC2012/val/JPEGImages/2008_003638.jpg
VOC2012/val/JPEGImages/2008_003662.jpg
VOC2012/val/JPEGImages/2008_003671.jpg
VOC2012/val/JPEGImages/2008_003754.jpg
VOC2012/val/JPEGImages/2008_003756.jpg
VOC2012/val/JPEGImages/2008_003775.jpg
VOC2012/val/JPEGImages/2008_003780.jpg
VOC2012/val/JPEGImages/2008_003793.jpg
VOC2012/val/JPEGImages/2008_003813.jpg
VOC2012/val/JPEGImages/2008_003820.jpg
VOC2012/val/JPEGImages/2008_003856.jpg
VOC2012/val/JPEGImages/2008_003868.jpg
VOC2012/val/JPEGImages/2008_003873.jpg
VOC2012/val/JPEGImages/2008_003929.jpg
VOC2012/val/JPEGImages/2008_003940.jpg
VOC2012/val/JPEGImages/2008_003951.jpg
VOC2012/val/JPEGImages/2008_003965.jpg
VOC2012/val/JPEGImages/2008_003983.jpg
VOC2012/val/JPEGImages/2008_004003.jpg
VOC2012/val/JPEGImages/2008_004018.jpg
VOC2012/val/JPEGImages/2008_004045.jpg
VOC2012/val/JPEGImages/2008_004071.jpg
VOC2012/val/JPEGImages/2008_004088.jpg
VOC2012/val/JPEGImages/2008_004101.jpg
VOC2012/val/JPEGImages/2008_004123.jpg
VOC2012/val/JPEGImages/2008_004135.jpg
VOC2012/val/JPEGImages/2008_004188.jpg
VOC2012/val/JPEGImages/2008_004198.jpg
VOC2012/val/JPEGImages/2008_004203.jpg
VOC2012/val/JPEGImages/2008_004205.jpg
VOC2012/val/JPEGImages/2008_004221.jpg
VOC2012/val/JPEGImages/2008_004230.jpg
VOC2012/val/JPEGImages/2008_004242.jpg
VOC2012/val/JPEGImages/2008_004308.jpg
VOC2012/val/JPEGImages/2008_004333.jpg
VOC2012/val/JPEGImages/2008_004344.jpg
VOC2012/val/JPEGImages/2008_004361.jpg
VOC2012/val/JPEGImages/2008_004389.jpg
VOC2012/val/JPEGImages/2008_004426.jpg
VOC2012/val/JPEGImages/2008_004438.jpg
VOC2012/val/JPEGImages/2008_004455.jpg
VOC2012/val/JPEGImages/2008_004464.jpg
VOC2012/val/JPEGImages/2008_004471.jpg
VOC2012/val/JPEGImages/2008_004501.jpg
VOC2012/val/JPEGImages/2008_004504.jpg
VOC2012/val/JPEGImages/2008_004510.jpg
VOC2012/val/JPEGImages/2008_004533.jpg
VOC2012/val/JPEGImages/2008_004534.jpg
VOC2012/val/JPEGImages/2008_004538.jpg
VOC2012/val/JPEGImages/2008_004647.jpg
VOC2012/val/JPEGImages/2008_004654.jpg
VOC2012/val/JPEGImages/2008_004656.jpg
VOC2012/val/JPEGImages/2008_004665.jpg
VOC2012/val/JPEGImages/2008_004687.jpg
VOC2012/val/JPEGImages/2020_02_102.jpg
VOC2012/val/JPEGImages/2020_02_103.jpg
VOC2012/val/JPEGImages/2020_02_106.jpg
VOC2012/val/JPEGImages/2020_02_108.jpg
VOC2012/val/JPEGImages/2020_02_12.jpg
VOC2012/val/JPEGImages/2020_02_120.jpg
VOC2012/val/JPEGImages/2020_02_121.jpg
VOC2012/val/JPEGImages/2020_02_122.jpg
VOC2012/val/JPEGImages/2020_02_123.jpg
VOC2012/val/JPEGImages/2020_02_124.jpg
VOC2012/val/JPEGImages/2020_02_125.jpg
VOC2012/val/JPEGImages/2020_02_126.jpg
VOC2012/val/JPEGImages/2020_02_127.jpg
VOC2012/val/JPEGImages/2020_02_128.jpg
VOC2012/val/JPEGImages/2020_02_129.jpg
VOC2012/val/JPEGImages/2020_02_123.jpg
VOC2012/val/JPEGImages/2020_02_131.jpg
VOC2012/val/JPEGImages/2020_02_132.jpg
VOC2012/val/JPEGImages/2020_02_144.jpeg
VOC2012/val/JPEGImages/2020_02_145.jpg
VOC2012/val/JPEGImages/2020_02_147.jpg
VOC2012/val/JPEGImages/2020_02_153.jpg
VOC2012/val/JPEGImages/2020_02_162.jpeg
VOC2012/val/JPEGImages/2020_02_163.jpg
VOC2012/val/JPEGImages/2020_02_164.jpg
VOC2012/val/JPEGImages/2020_02_165.jpg
VOC2012/val/JPEGImages/2020_02_177.jpeg
VOC2012/val/JPEGImages/2020_02_181.jpg
VOC2012/val/JPEGImages/2020_02_183.jpeg
VOC2012/val/JPEGImages/2020_02_189.png
VOC2012/val/JPEGImages/2020_02_191.jpg
VOC2012/val/JPEGImages/2020_02_193.jpeg
VOC2012/val/JPEGImages/2020_02_196.jpg
VOC2012/val/JPEGImages/2020_02_198.jpg
VOC2012/val/JPEGImages/2020_02_199.jpg
VOC2012/val/JPEGImages/2020_02_2.png
VOC2012/val/JPEGImages/2020_02_20.jpg
VOC2012/val/JPEGImages/2020_02_200.jpg
VOC2012/val/JPEGImages/2020_02_201.jpg
VOC2012/val/JPEGImages/2020_02_202.jpg
VOC2012/val/JPEGImages/2020_02_203.jpg
VOC2012/val/JPEGImages/2020_02_204.jpg
VOC2012/val/JPEGImages/2020_02_205.jpg
VOC2012/val/JPEGImages/2020_02_206.jpg
VOC2012/val/JPEGImages/2020_02_207.jpg
VOC2012/val/JPEGImages/2020_02_208.jpg
VOC2012/val/JPEGImages/2020_02_209.jpg
VOC2012/val/JPEGImages/2020_02_21.jpg
VOC2012/val/JPEGImages/2020_02_210.jpg
VOC2012/val/JPEGImages/2020_02_211.jpg
VOC2012/val/JPEGImages/2020_02_212.jpg
VOC2012/val/JPEGImages/2020_02_213.jpg
VOC2012/val/JPEGImages/2020_02_214.jpg
VOC2012/val/JPEGImages/2020_02_215.jpg
VOC2012/val/JPEGImages/2020_02_216.jpg
VOC2012/val/JPEGImages/2020_02_217.jpg
VOC2012/val/JPEGImages/2020_02_218.jpg
VOC2012/val/JPEGImages/2020_02_219.jpg
VOC2012/val/JPEGImages/2020_02_22.jpg
VOC2012/val/JPEGImages/2020_02_220.jpg
VOC2012/val/JPEGImages/2020_02_221.jpg
VOC2012/val/JPEGImages/2020_02_222.jpg
VOC2012/val/JPEGImages/2020_02_223.jpg
VOC2012/val/JPEGImages/2020_02_224.jpg
VOC2012/val/JPEGImages/2020_02_225.jpg
VOC2012/val/JPEGImages/2020_02_226.jpg
VOC2012/val/JPEGImages/2020_02_227.jpg
VOC2012/val/JPEGImages/2020_02_228.jpg
VOC2012/val/JPEGImages/2020_02_23.jpg
VOC2012/val/JPEGImages/2020_02_230.jpg
VOC2012/val/JPEGImages/2020_02_231.jpg
VOC2012/val/JPEGImages/2020_02_232.jpg
VOC2012/val/JPEGImages/2020_02_233.jpg
VOC2012/val/JPEGImages/2020_02_234.jpg
VOC2012/val/JPEGImages/2020_02_235.jpg
VOC2012/val/JPEGImages/2020_02_236.jpg
VOC2012/val/JPEGImages/2020_02_237.jpg
VOC2012/val/JPEGImages/2020_02_238.jpg
VOC2012/val/JPEGImages/2020_02_239.jpg
VOC2012/val/JPEGImages/2020_02_24.jpg
VOC2012/val/JPEGImages/2020_02_240.jpg
VOC2012/val/JPEGImages/2020_02_241.jpg
VOC2012/val/JPEGImages/2020_02_243.jpg
VOC2012/val/JPEGImages/2020_02_244.png
VOC2012/val/JPEGImages/2020_02_245.jpg
VOC2012/val/JPEGImages/2020_02_246.jpg
VOC2012/val/JPEGImages/2020_02_247.jpg
VOC2012/val/JPEGImages/2020_02_248.jpg
VOC2012/val/JPEGImages/2020_02_249.jpg
VOC2012/val/JPEGImages/2020_02_25.jpg
VOC2012/val/JPEGImages/2020_02_250.jpg
VOC2012/val/JPEGImages/2020_02_251.jpg
VOC2012/val/JPEGImages/2020_02_252.jpg
VOC2012/val/JPEGImages/2020_02_253.jpg
VOC2012/val/JPEGImages/2020_02_254.jpg
VOC2012/val/JPEGImages/2020_02_255.jpg
VOC2012/val/JPEGImages/2020_02_256.jpg
VOC2012/val/JPEGImages/2020_02_257.jpg
VOC2012/val/JPEGImages/2020_02_258.jpg
VOC2012/val/JPEGImages/2020_02_259.png
VOC2012/val/JPEGImages/2020_02_26.jpg
VOC2012/val/JPEGImages/2020_02_260.jpg
VOC2012/val/JPEGImages/2020_02_261.jpg
VOC2012/val/JPEGImages/2020_02_262.jpg
VOC2012/val/JPEGImages/2020_02_263.jpg
VOC2012/val/JPEGImages/2020_02_264.jpg
VOC2012/val/JPEGImages/2020_02_265.jpg
VOC2012/val/JPEGImages/2020_02_266.png
VOC2012/val/JPEGImages/2020_02_267.jpg
VOC2012/val/JPEGImages/2020_02_268.jpg
VOC2012/val/JPEGImages/2020_02_269.jpg
VOC2012/val/JPEGImages/2020_02_27.jpg
VOC2012/val/JPEGImages/2020_02_270.jpg
VOC2012/val/JPEGImages/2020_02_271.jpg
VOC2012/val/JPEGImages/2020_02_272.jpg
VOC2012/val/JPEGImages/2020_02_273.jpg
VOC2012/val/JPEGImages/2020_02_274.jpg
VOC2012/val/JPEGImages/2020_02_275.jpg
VOC2012/val/JPEGImages/2020_02_277.jpg
VOC2012/val/JPEGImages/2020_02_278.jpg
VOC2012/val/JPEGImages/2020_02_279.jpg
VOC2012/val/JPEGImages/2020_02_28.jpg
VOC2012/val/JPEGImages/2020_02_281.jpg
VOC2012/val/JPEGImages/2020_02_282.jpg
VOC2012/val/JPEGImages/2020_02_283.jpg
VOC2012/val/JPEGImages/2020_02_285.jpg
VOC2012/val/JPEGImages/2020_02_286.jpg
VOC2012/val/JPEGImages/2020_02_287.jpg
VOC2012/val/JPEGImages/2020_02_288.jpg
VOC2012/val/JPEGImages/2020_02_289.jpg
VOC2012/val/JPEGImages/2020_02_29.jpg
VOC2012/val/JPEGImages/2020_02_290.jpg
VOC2012/val/JPEGImages/2020_02_291.jpg
VOC2012/val/JPEGImages/2020_02_292.jpg
VOC2012/val/JPEGImages/2020_02_293.jpg
VOC2012/val/JPEGImages/2020_02_294.jpg
VOC2012/val/JPEGImages/2020_02_295.jpg
VOC2012/val/JPEGImages/2020_02_296.jpg
VOC2012/val/JPEGImages/2020_02_297.jpg
VOC2012/val/JPEGImages/2020_02_298.jpg
VOC2012/val/JPEGImages/2020_02_299.jpg
VOC2012/val/JPEGImages/2020_02_20.jpg
VOC2012/val/JPEGImages/2020_02_200.jpg
VOC2012/val/JPEGImages/2020_02_201.jpg
VOC2012/val/JPEGImages/2020_02_202.jpg
VOC2012/val/JPEGImages/2020_02_203.jpg
VOC2012/val/JPEGImages/2020_02_204.jpg
VOC2012/val/JPEGImages/2020_02_205.jpg
VOC2012/val/JPEGImages/2020_02_206.jpg
VOC2012/val/JPEGImages/2020_02_207.jpg
VOC2012/val/JPEGImages/2020_02_208.jpg
VOC2012/val/JPEGImages/2020_02_209.jpg
VOC2012/val/JPEGImages/2020_02_203.jpg
VOC2012/val/JPEGImages/2020_02_204.jpg
VOC2012/val/JPEGImages/2020_02_209.jpg
VOC2012/val/JPEGImages/2020_02_211.jpg
VOC2012/val/JPEGImages/2020_02_217.jpg
VOC2012/val/JPEGImages/2020_02_220.jpg
VOC2012/val/JPEGImages/2020_02_23.jpg
VOC2012/val/JPEGImages/2020_02_230.jpg
VOC2012/val/JPEGImages/2020_02_231.jpg
VOC2012/val/JPEGImages/2020_02_232.jpg
VOC2012/val/JPEGImages/2020_02_233.jpg
VOC2012/val/JPEGImages/2020_02_234.jpg
VOC2012/val/JPEGImages/2020_02_235.jpg
VOC2012/val/JPEGImages/2020_02_236.jpg
VOC2012/val/JPEGImages/2020_02_237.jpg
VOC2012/val/JPEGImages/2020_02_238.jpg
VOC2012/val/JPEGImages/2020_02_239.jpg
VOC2012/val/JPEGImages/2020_02_243.jpg
VOC2012/val/JPEGImages/2020_02_248.jpg
VOC2012/val/JPEGImages/2020_02_25.jpg
VOC2012/val/JPEGImages/2020_02_250.jpg
VOC2012/val/JPEGImages/2020_02_251.jpg
VOC2012/val/JPEGImages/2020_02_252.jpg
VOC2012/val/JPEGImages/2020_02_253.jpg
VOC2012/val/JPEGImages/2020_02_254.jpg
VOC2012/val/JPEGImages/2020_02_255.jpg
VOC2012/val/JPEGImages/2020_02_256.jpg
VOC2012/val/JPEGImages/2020_02_257.jpg
VOC2012/val/JPEGImages/2020_02_258.jpg
VOC2012/val/JPEGImages/2020_02_259.png
VOC2012/val/JPEGImages/2020_02_252.jpg
VOC2012/val/JPEGImages/2020_02_258.jpg
VOC2012/val/JPEGImages/2020_02_26.jpg
VOC2012/val/JPEGImages/2020_02_260.jpg
VOC2012/val/JPEGImages/2020_02_261.jpg
VOC2012/val/JPEGImages/2020_02_262.jpg
VOC2012/val/JPEGImages/2020_02_263.jpg
VOC2012/val/JPEGImages/2020_02_264.jpg
VOC2012/val/JPEGImages/2020_02_265.jpg
VOC2012/val/JPEGImages/2020_02_266.png
VOC2012/val/JPEGImages/2020_02_267.jpg
VOC2012/val/JPEGImages/2020_02_268.jpg
VOC2012/val/JPEGImages/2020_02_269.jpg
VOC2012/val/JPEGImages/2020_02_260.jpg
VOC2012/val/JPEGImages/2020_02_265.jpg
VOC2012/val/JPEGImages/2020_02_266.png
VOC2012/val/JPEGImages/2020_02_271.jpg
VOC2012/val/JPEGImages/2020_02_273.jpg
VOC2012/val/JPEGImages/2020_02_275.jpg
VOC2012/val/JPEGImages/2020_02_281.jpg
VOC2012/val/JPEGImages/2020_02_288.jpg
VOC2012/val/JPEGImages/2020_02_290.jpg
VOC2012/val/JPEGImages/2020_02_299.jpg
VOC2012/val/JPEGImages/2020_02_306.jpg
VOC2012/val/JPEGImages/2020_02_311.jpg
VOC2012/val/JPEGImages/2020_02_317.jpg
VOC2012/val/JPEGImages/2020_02_325.jpg
VOC2012/val/JPEGImages/2020_02_327.jpg
VOC2012/val/JPEGImages/2020_02_34.jpg
VOC2012/val/JPEGImages/2020_02_340.jpg
VOC2012/val/JPEGImages/2020_02_341.jpg
VOC2012/val/JPEGImages/2020_02_342.jpg
VOC2012/val/JPEGImages/2020_02_343.jpeg
VOC2012/val/JPEGImages/2020_02_344.jpg
VOC2012/val/JPEGImages/2020_02_345.jpg
VOC2012/val/JPEGImages/2020_02_346.jpg
VOC2012/val/JPEGImages/2020_02_347.jpg
VOC2012/val/JPEGImages/2020_02_348.png
VOC2012/val/JPEGImages/2020_02_349.jpg
VOC2012/val/JPEGImages/2020_02_342.jpg
VOC2012/val/JPEGImages/2020_02_348.png
VOC2012/val/JPEGImages/2020_02_357.jpg
VOC2012/val/JPEGImages/2020_02_366.jpg
VOC2012/val/JPEGImages/2020_02_37.jpg
VOC2012/val/JPEGImages/2020_02_370.jpg
VOC2012/val/JPEGImages/2020_02_371.jpg
VOC2012/val/JPEGImages/2020_02_372.jpg
VOC2012/val/JPEGImages/2020_02_373.jpg
VOC2012/val/JPEGImages/2020_02_374.jpg
VOC2012/val/JPEGImages/2020_02_375.jpg
VOC2012/val/JPEGImages/2020_02_376.jpg
VOC2012/val/JPEGImages/2020_02_377.jpg
VOC2012/val/JPEGImages/2020_02_378.jpg
VOC2012/val/JPEGImages/2020_02_379.jpg
VOC2012/val/JPEGImages/2020_02_372.jpg
VOC2012/val/JPEGImages/2020_02_376.jpg
VOC2012/val/JPEGImages/2020_02_380.jpg
VOC2012/val/JPEGImages/2020_02_386.jpeg
VOC2012/val/JPEGImages/2020_02_393.jpg
VOC2012/val/JPEGImages/2020_02_394.JPG
VOC2012/val/JPEGImages/2020_02_401.jpg
VOC2012/val/JPEGImages/2020_02_406.png
VOC2012/val/JPEGImages/2020_02_408.jpg
VOC2012/val/JPEGImages/2020_02_44.jpg
VOC2012/val/JPEGImages/2020_02_45.jpg
VOC2012/val/JPEGImages/2020_02_50.jpg
VOC2012/val/JPEGImages/2020_02_53.jpg
VOC2012/val/JPEGImages/2020_02_56.png
VOC2012/val/JPEGImages/2020_02_59.png
VOC2012/val/JPEGImages/2020_02_6.jpg
VOC2012/val/JPEGImages/2020_02_60.jpg
VOC2012/val/JPEGImages/2020_02_61.png
VOC2012/val/JPEGImages/2020_02_62.png
VOC2012/val/JPEGImages/2020_02_63.png
VOC2012/val/JPEGImages/2020_02_64.png
VOC2012/val/JPEGImages/2020_02_65.png
VOC2012/val/JPEGImages/2020_02_66.jpg
VOC2012/val/JPEGImages/2020_02_67.jpg
VOC2012/val/JPEGImages/2020_02_68.jpg
VOC2012/val/JPEGImages/2020_02_69.jpg
VOC2012/val/JPEGImages/2020_02_70.jpg
VOC2012/val/JPEGImages/2020_02_72.jpg
VOC2012/val/JPEGImages/2020_02_77.jpg
VOC2012/val/JPEGImages/2020_02_78.jpg
VOC2012/val/JPEGImages/2020_02_87.jpg
VOC2012/val/JPEGImages/2020_02_9.jpg
VOC2012/val/JPEGImages/2020_02_90.jpg
VOC2012/val/JPEGImages/2020_02_91.jpg
VOC2012/val/JPEGImages/2020_02_92.jpg
VOC2012/val/JPEGImages/2020_02_93.jpg
VOC2012/val/JPEGImages/2020_02_94.jpg
VOC2012/val/JPEGImages/2020_02_95.jpg
VOC2012/val/JPEGImages/2020_02_96.jpg
VOC2012/val/JPEGImages/2020_02_97.jpg
VOC2012/val/JPEGImages/2020_02_98.jpg
VOC2012/val/JPEGImages/2020_02_99.jpg
VOC2012/val/JPEGImages/2020_02_93.jpg
VOC2012/val/JPEGImages/2020_02_94.jpg
VOC2012/val/JPEGImages/2020_106.jpg
VOC2012/val/JPEGImages/2020_108.jpg
VOC2012/val/JPEGImages/2020_110.jpg
VOC2012/val/JPEGImages/2020_126.jpg
VOC2012/val/JPEGImages/2020_128.jpg
VOC2012/val/JPEGImages/2020_140.jpg
VOC2012/val/JPEGImages/2020_172.jpg
VOC2012/val/JPEGImages/2020_182.jpg
VOC2012/val/JPEGImages/2020_185.jpg
VOC2012/val/JPEGImages/2020_199.jpg
VOC2012/val/JPEGImages/2020_202.jpg
VOC2012/val/JPEGImages/2020_203.jpg
VOC2012/val/JPEGImages/2020_205.jpeg
VOC2012/val/JPEGImages/2020_210.jpg
VOC2012/val/JPEGImages/2020_213.jpeg
VOC2012/val/JPEGImages/2020_221.jpg
VOC2012/val/JPEGImages/2020_227.jpg
VOC2012/val/JPEGImages/2020_23.jpeg
VOC2012/val/JPEGImages/2020_230.jpg
VOC2012/val/JPEGImages/2020_231.jpg
VOC2012/val/JPEGImages/2020_232.jpg
VOC2012/val/JPEGImages/2020_233.jpg
VOC2012/val/JPEGImages/2020_234.jpeg
VOC2012/val/JPEGImages/2020_235.jpg
VOC2012/val/JPEGImages/2020_236.jpg
VOC2012/val/JPEGImages/2020_237.jpg
VOC2012/val/JPEGImages/2020_238.jpg
VOC2012/val/JPEGImages/2020_239.jpeg
VOC2012/val/JPEGImages/2020_242.jpg
VOC2012/val/JPEGImages/2020_245.jpg
VOC2012/val/JPEGImages/2020_25.jpg
VOC2012/val/JPEGImages/2020_250.jpeg
VOC2012/val/JPEGImages/2020_251.jpg
VOC2012/val/JPEGImages/2020_252.jpg
VOC2012/val/JPEGImages/2020_253.jpg
VOC2012/val/JPEGImages/2020_254.jpg
VOC2012/val/JPEGImages/2020_255.jpg
VOC2012/val/JPEGImages/2020_256.jpeg
VOC2012/val/JPEGImages/2020_257.jpg
VOC2012/val/JPEGImages/2020_258.jpeg
VOC2012/val/JPEGImages/2020_259.jpeg
VOC2012/val/JPEGImages/2020_253.jpg
VOC2012/val/JPEGImages/2020_258.jpeg
VOC2012/val/JPEGImages/2020_26.jpg
VOC2012/val/JPEGImages/2020_260.jpg
VOC2012/val/JPEGImages/2020_261.jpg
VOC2012/val/JPEGImages/2020_262.jpg
VOC2012/val/JPEGImages/2020_263.jpg
VOC2012/val/JPEGImages/2020_264.jpg
VOC2012/val/JPEGImages/2020_265.jpg
VOC2012/val/JPEGImages/2020_266.jpg
VOC2012/val/JPEGImages/2020_267.jpg
VOC2012/val/JPEGImages/2020_268.jpeg
VOC2012/val/JPEGImages/2020_269.jpg
VOC2012/val/JPEGImages/2020_260.jpg
VOC2012/val/JPEGImages/2020_267.jpg
VOC2012/val/JPEGImages/2020_268.jpeg
VOC2012/val/JPEGImages/2020_276.jpg
VOC2012/val/JPEGImages/2020_278.jpg
VOC2012/val/JPEGImages/2020_28.jpg
VOC2012/val/JPEGImages/2020_280.jpg
VOC2012/val/JPEGImages/2020_281.jpg
VOC2012/val/JPEGImages/2020_282.jpg
VOC2012/val/JPEGImages/2020_283.jpg
VOC2012/val/JPEGImages/2020_284.jpg
VOC2012/val/JPEGImages/2020_285.jpg
VOC2012/val/JPEGImages/2020_286.jpg
VOC2012/val/JPEGImages/2020_288.jpg
VOC2012/val/JPEGImages/2020_282.jpg
VOC2012/val/JPEGImages/2020_295.jpeg
VOC2012/val/JPEGImages/2020_296.jpg
VOC2012/val/JPEGImages/2020_297.jpg
VOC2012/val/JPEGImages/2020_301.jpg
VOC2012/val/JPEGImages/2020_307.jpg
VOC2012/val/JPEGImages/2020_314.jpg
VOC2012/val/JPEGImages/2020_315.jpg
VOC2012/val/JPEGImages/2020_323.jpg
VOC2012/val/JPEGImages/2020_325.jpg
VOC2012/val/JPEGImages/2020_328.jpg
VOC2012/val/JPEGImages/2020_33.jpg
VOC2012/val/JPEGImages/2020_330.jpeg
VOC2012/val/JPEGImages/2020_331.jpg
VOC2012/val/JPEGImages/2020_332.jpg
VOC2012/val/JPEGImages/2020_333.jpg
VOC2012/val/JPEGImages/2020_334.jpg
VOC2012/val/JPEGImages/2020_335.jpg
VOC2012/val/JPEGImages/2020_336.jpg
VOC2012/val/JPEGImages/2020_337.jpg
VOC2012/val/JPEGImages/2020_338.jpg
VOC2012/val/JPEGImages/2020_339.jpg
VOC2012/val/JPEGImages/2020_331.jpg
VOC2012/val/JPEGImages/2020_339.jpg
VOC2012/val/JPEGImages/2020_342.jpg
VOC2012/val/JPEGImages/2020_351.jpg
VOC2012/val/JPEGImages/2020_358.jpg
VOC2012/val/JPEGImages/2020_362.jpg
VOC2012/val/JPEGImages/2020_365.jpg
VOC2012/val/JPEGImages/2020_367.jpeg
VOC2012/val/JPEGImages/2020_373.jpg
VOC2012/val/JPEGImages/2020_378.jpg
VOC2012/val/JPEGImages/2020_384.jpg
VOC2012/val/JPEGImages/2020_388.jpg
VOC2012/val/JPEGImages/2020_389.jpg
VOC2012/val/JPEGImages/2020_402.jpg
VOC2012/val/JPEGImages/2020_41.jpg
VOC2012/val/JPEGImages/2020_410.jpg
VOC2012/val/JPEGImages/2020_411.jpg
VOC2012/val/JPEGImages/2020_412.jpg
VOC2012/val/JPEGImages/2020_413.jpg
VOC2012/val/JPEGImages/2020_414.jpg
VOC2012/val/JPEGImages/2020_416.jpg
VOC2012/val/JPEGImages/2020_417.jpg
VOC2012/val/JPEGImages/2020_418.jpg
VOC2012/val/JPEGImages/2020_419.jpg
VOC2012/val/JPEGImages/2020_413.jpg
VOC2012/val/JPEGImages/2020_418.jpg
VOC2012/val/JPEGImages/2020_421.jpg
VOC2012/val/JPEGImages/2020_424.jpg
VOC2012/val/JPEGImages/2020_428.jpg
VOC2012/val/JPEGImages/2020_433.jpg
VOC2012/val/JPEGImages/2020_439.jpg
VOC2012/val/JPEGImages/2020_444.jpg
VOC2012/val/JPEGImages/2020_462.jpeg
VOC2012/val/JPEGImages/2020_464.jpg
VOC2012/val/JPEGImages/2020_476.jpg
VOC2012/val/JPEGImages/2020_48.jpg
VOC2012/val/JPEGImages/2020_480.jpg
VOC2012/val/JPEGImages/2020_481.jpg
VOC2012/val/JPEGImages/2020_482.jpg
VOC2012/val/JPEGImages/2020_483.jpeg
VOC2012/val/JPEGImages/2020_485.jpg
VOC2012/val/JPEGImages/2020_486.jpg
VOC2012/val/JPEGImages/2020_488.jpeg
VOC2012/val/JPEGImages/2020_489.jpg
VOC2012/val/JPEGImages/2020_481.jpg
VOC2012/val/JPEGImages/2020_485.jpg
VOC2012/val/JPEGImages/2020_489.jpg
VOC2012/val/JPEGImages/2020_58.jpeg
VOC2012/val/JPEGImages/2020_59.jpg
VOC2012/val/JPEGImages/2020_69.jpeg
VOC2012/val/JPEGImages/2020_76.jpg
VOC2012/val/JPEGImages/2020_84.jpg
VOC2012/val/JPEGImages/2020_91.jpg
VOC2012/val/JPEGImages/2020_92.jpg
VOC2012/val/JPEGImages/2020_95.jpg
VOC2012/val/JPEGImages/maksssksksss10.png
VOC2012/val/JPEGImages/maksssksksss100.png
VOC2012/val/JPEGImages/maksssksksss101.png
VOC2012/val/JPEGImages/maksssksksss102.png
VOC2012/val/JPEGImages/maksssksksss103.png
VOC2012/val/JPEGImages/maksssksksss104.png
VOC2012/val/JPEGImages/maksssksksss105.png
VOC2012/val/JPEGImages/maksssksksss106.png
VOC2012/val/JPEGImages/maksssksksss107.png
VOC2012/val/JPEGImages/maksssksksss108.png
VOC2012/val/JPEGImages/maksssksksss109.png
VOC2012/val/JPEGImages/maksssksksss104.png
VOC2012/val/JPEGImages/maksssksksss138.png
VOC2012/val/JPEGImages/maksssksksss141.png
VOC2012/val/JPEGImages/maksssksksss15.png
VOC2012/val/JPEGImages/maksssksksss150.png
VOC2012/val/JPEGImages/maksssksksss151.png
VOC2012/val/JPEGImages/maksssksksss152.png
VOC2012/val/JPEGImages/maksssksksss153.png
VOC2012/val/JPEGImages/maksssksksss154.png
VOC2012/val/JPEGImages/maksssksksss155.png
VOC2012/val/JPEGImages/maksssksksss156.png
VOC2012/val/JPEGImages/maksssksksss157.png
VOC2012/val/JPEGImages/maksssksksss158.png
VOC2012/val/JPEGImages/maksssksksss159.png
VOC2012/val/JPEGImages/maksssksksss152.png
VOC2012/val/JPEGImages/maksssksksss154.png
VOC2012/val/JPEGImages/maksssksksss158.png
VOC2012/val/JPEGImages/maksssksksss174.png
VOC2012/val/JPEGImages/maksssksksss175.png
VOC2012/val/JPEGImages/maksssksksss179.png
VOC2012/val/JPEGImages/maksssksksss190.png
VOC2012/val/JPEGImages/maksssksksss20.png
VOC2012/val/JPEGImages/maksssksksss200.png
VOC2012/val/JPEGImages/maksssksksss201.png
VOC2012/val/JPEGImages/maksssksksss202.png
VOC2012/val/JPEGImages/maksssksksss203.png
VOC2012/val/JPEGImages/maksssksksss204.png
VOC2012/val/JPEGImages/maksssksksss205.png
VOC2012/val/JPEGImages/maksssksksss206.png
VOC2012/val/JPEGImages/maksssksksss207.png
VOC2012/val/JPEGImages/maksssksksss208.png
VOC2012/val/JPEGImages/maksssksksss209.png
VOC2012/val/JPEGImages/maksssksksss203.png
VOC2012/val/JPEGImages/maksssksksss204.png
VOC2012/val/JPEGImages/maksssksksss205.png
VOC2012/val/JPEGImages/maksssksksss212.png
VOC2012/val/JPEGImages/maksssksksss213.png
VOC2012/val/JPEGImages/maksssksksss223.png
VOC2012/val/JPEGImages/maksssksksss237.png
VOC2012/val/JPEGImages/maksssksksss256.png
VOC2012/val/JPEGImages/maksssksksss259.png
VOC2012/val/JPEGImages/maksssksksss261.png
VOC2012/val/JPEGImages/maksssksksss272.png
VOC2012/val/JPEGImages/maksssksksss273.png
VOC2012/val/JPEGImages/maksssksksss280.png
VOC2012/val/JPEGImages/maksssksksss282.png
VOC2012/val/JPEGImages/maksssksksss286.png
VOC2012/val/JPEGImages/maksssksksss293.png
VOC2012/val/JPEGImages/maksssksksss299.png
VOC2012/val/JPEGImages/maksssksksss30.png
VOC2012/val/JPEGImages/maksssksksss300.png
VOC2012/val/JPEGImages/maksssksksss301.png
VOC2012/val/JPEGImages/maksssksksss302.png
VOC2012/val/JPEGImages/maksssksksss303.png
VOC2012/val/JPEGImages/maksssksksss304.png
VOC2012/val/JPEGImages/maksssksksss305.png
VOC2012/val/JPEGImages/maksssksksss306.png
VOC2012/val/JPEGImages/maksssksksss307.png
VOC2012/val/JPEGImages/maksssksksss308.png
VOC2012/val/JPEGImages/maksssksksss309.png
VOC2012/val/JPEGImages/maksssksksss302.png
VOC2012/val/JPEGImages/maksssksksss303.png
VOC2012/val/JPEGImages/maksssksksss305.png
VOC2012/val/JPEGImages/maksssksksss309.png
VOC2012/val/JPEGImages/maksssksksss314.png
VOC2012/val/JPEGImages/maksssksksss323.png
VOC2012/val/JPEGImages/maksssksksss328.png
VOC2012/val/JPEGImages/maksssksksss330.png
VOC2012/val/JPEGImages/maksssksksss331.png
VOC2012/val/JPEGImages/maksssksksss336.png
VOC2012/val/JPEGImages/maksssksksss354.png
VOC2012/val/JPEGImages/maksssksksss364.png
VOC2012/val/JPEGImages/maksssksksss368.png
VOC2012/val/JPEGImages/maksssksksss37.png
VOC2012/val/JPEGImages/maksssksksss370.png
VOC2012/val/JPEGImages/maksssksksss371.png
VOC2012/val/JPEGImages/maksssksksss372.png
VOC2012/val/JPEGImages/maksssksksss373.png
VOC2012/val/JPEGImages/maksssksksss374.png
VOC2012/val/JPEGImages/maksssksksss375.png
VOC2012/val/JPEGImages/maksssksksss376.png
VOC2012/val/JPEGImages/maksssksksss377.png
VOC2012/val/JPEGImages/maksssksksss378.png
VOC2012/val/JPEGImages/maksssksksss379.png
VOC2012/val/JPEGImages/maksssksksss383.png
VOC2012/val/JPEGImages/maksssksksss385.png
VOC2012/val/JPEGImages/maksssksksss39.png
VOC2012/val/JPEGImages/maksssksksss390.png
VOC2012/val/JPEGImages/maksssksksss391.png
VOC2012/val/JPEGImages/maksssksksss392.png
VOC2012/val/JPEGImages/maksssksksss393.png
VOC2012/val/JPEGImages/maksssksksss394.png
VOC2012/val/JPEGImages/maksssksksss395.png
VOC2012/val/JPEGImages/maksssksksss396.png
VOC2012/val/JPEGImages/maksssksksss397.png
VOC2012/val/JPEGImages/maksssksksss398.png
VOC2012/val/JPEGImages/maksssksksss399.png
VOC2012/val/JPEGImages/maksssksksss396.png
VOC2012/val/JPEGImages/maksssksksss408.png
VOC2012/val/JPEGImages/maksssksksss411.png
VOC2012/val/JPEGImages/maksssksksss416.png
VOC2012/val/JPEGImages/maksssksksss424.png
VOC2012/val/JPEGImages/maksssksksss426.png
VOC2012/val/JPEGImages/maksssksksss429.png
VOC2012/val/JPEGImages/maksssksksss44.png
VOC2012/val/JPEGImages/maksssksksss440.png
VOC2012/val/JPEGImages/maksssksksss441.png
VOC2012/val/JPEGImages/maksssksksss442.png
VOC2012/val/JPEGImages/maksssksksss443.png
VOC2012/val/JPEGImages/maksssksksss444.png
VOC2012/val/JPEGImages/maksssksksss445.png
VOC2012/val/JPEGImages/maksssksksss446.png
VOC2012/val/JPEGImages/maksssksksss447.png
VOC2012/val/JPEGImages/maksssksksss448.png
VOC2012/val/JPEGImages/maksssksksss449.png
VOC2012/val/JPEGImages/maksssksksss440.png
VOC2012/val/JPEGImages/maksssksksss463.png
VOC2012/val/JPEGImages/maksssksksss465.png
VOC2012/val/JPEGImages/maksssksksss467.png
VOC2012/val/JPEGImages/maksssksksss47.png
VOC2012/val/JPEGImages/maksssksksss470.png
VOC2012/val/JPEGImages/maksssksksss471.png
VOC2012/val/JPEGImages/maksssksksss472.png
VOC2012/val/JPEGImages/maksssksksss473.png
VOC2012/val/JPEGImages/maksssksksss474.png
VOC2012/val/JPEGImages/maksssksksss475.png
VOC2012/val/JPEGImages/maksssksksss476.png
VOC2012/val/JPEGImages/maksssksksss477.png
VOC2012/val/JPEGImages/maksssksksss478.png
VOC2012/val/JPEGImages/maksssksksss479.png
VOC2012/val/JPEGImages/maksssksksss479.png
VOC2012/val/JPEGImages/maksssksksss481.png
VOC2012/val/JPEGImages/maksssksksss482.png
VOC2012/val/JPEGImages/maksssksksss490.png
VOC2012/val/JPEGImages/maksssksksss496.png
VOC2012/val/JPEGImages/maksssksksss50.png
VOC2012/val/JPEGImages/maksssksksss500.png
VOC2012/val/JPEGImages/maksssksksss501.png
VOC2012/val/JPEGImages/maksssksksss502.png
VOC2012/val/JPEGImages/maksssksksss503.png
VOC2012/val/JPEGImages/maksssksksss504.png
VOC2012/val/JPEGImages/maksssksksss505.png
VOC2012/val/JPEGImages/maksssksksss506.png
VOC2012/val/JPEGImages/maksssksksss507.png
VOC2012/val/JPEGImages/maksssksksss508.png
VOC2012/val/JPEGImages/maksssksksss509.png
VOC2012/val/JPEGImages/maksssksksss505.png
VOC2012/val/JPEGImages/maksssksksss516.png
VOC2012/val/JPEGImages/maksssksksss520.png
VOC2012/val/JPEGImages/maksssksksss531.png
VOC2012/val/JPEGImages/maksssksksss540.png
VOC2012/val/JPEGImages/maksssksksss541.png
VOC2012/val/JPEGImages/maksssksksss552.png
VOC2012/val/JPEGImages/maksssksksss553.png
VOC2012/val/JPEGImages/maksssksksss555.png
VOC2012/val/JPEGImages/maksssksksss56.png
VOC2012/val/JPEGImages/maksssksksss560.png
VOC2012/val/JPEGImages/maksssksksss561.png
VOC2012/val/JPEGImages/maksssksksss562.png
VOC2012/val/JPEGImages/maksssksksss563.png
VOC2012/val/JPEGImages/maksssksksss564.png
VOC2012/val/JPEGImages/maksssksksss565.png
VOC2012/val/JPEGImages/maksssksksss566.png
VOC2012/val/JPEGImages/maksssksksss567.png
VOC2012/val/JPEGImages/maksssksksss568.png
VOC2012/val/JPEGImages/maksssksksss569.png
VOC2012/val/JPEGImages/maksssksksss561.png
VOC2012/val/JPEGImages/maksssksksss562.png
VOC2012/val/JPEGImages/maksssksksss577.png
VOC2012/val/JPEGImages/maksssksksss58.png
VOC2012/val/JPEGImages/maksssksksss580.png
VOC2012/val/JPEGImages/maksssksksss581.png
VOC2012/val/JPEGImages/maksssksksss582.png
VOC2012/val/JPEGImages/maksssksksss583.png
VOC2012/val/JPEGImages/maksssksksss584.png
VOC2012/val/JPEGImages/maksssksksss585.png
VOC2012/val/JPEGImages/maksssksksss586.png
VOC2012/val/JPEGImages/maksssksksss587.png
VOC2012/val/JPEGImages/maksssksksss588.png
VOC2012/val/JPEGImages/maksssksksss589.png
VOC2012/val/JPEGImages/maksssksksss581.png
VOC2012/val/JPEGImages/maksssksksss600.png
VOC2012/val/JPEGImages/maksssksksss604.png
VOC2012/val/JPEGImages/maksssksksss610.png
VOC2012/val/JPEGImages/maksssksksss629.png
VOC2012/val/JPEGImages/maksssksksss64.png
VOC2012/val/JPEGImages/maksssksksss640.png
VOC2012/val/JPEGImages/maksssksksss641.png
VOC2012/val/JPEGImages/maksssksksss642.png
VOC2012/val/JPEGImages/maksssksksss643.png
VOC2012/val/JPEGImages/maksssksksss644.png
VOC2012/val/JPEGImages/maksssksksss645.png
VOC2012/val/JPEGImages/maksssksksss646.png
VOC2012/val/JPEGImages/maksssksksss647.png
VOC2012/val/JPEGImages/maksssksksss648.png
VOC2012/val/JPEGImages/maksssksksss649.png
VOC2012/val/JPEGImages/maksssksksss641.png
VOC2012/val/JPEGImages/maksssksksss642.png
VOC2012/val/JPEGImages/maksssksksss644.png
VOC2012/val/JPEGImages/maksssksksss647.png
VOC2012/val/JPEGImages/maksssksksss658.png
VOC2012/val/JPEGImages/maksssksksss66.png
VOC2012/val/JPEGImages/maksssksksss660.png
VOC2012/val/JPEGImages/maksssksksss661.png
VOC2012/val/JPEGImages/maksssksksss662.png
VOC2012/val/JPEGImages/maksssksksss663.png
VOC2012/val/JPEGImages/maksssksksss664.png
VOC2012/val/JPEGImages/maksssksksss665.png
VOC2012/val/JPEGImages/maksssksksss666.png
VOC2012/val/JPEGImages/maksssksksss667.png
VOC2012/val/JPEGImages/maksssksksss668.png
VOC2012/val/JPEGImages/maksssksksss669.png
VOC2012/val/JPEGImages/maksssksksss662.png
VOC2012/val/JPEGImages/maksssksksss669.png
VOC2012/val/JPEGImages/maksssksksss670.png
VOC2012/val/JPEGImages/maksssksksss676.png
VOC2012/val/JPEGImages/maksssksksss678.png
VOC2012/val/JPEGImages/maksssksksss679.png
VOC2012/val/JPEGImages/maksssksksss68.png
VOC2012/val/JPEGImages/maksssksksss680.png
VOC2012/val/JPEGImages/maksssksksss681.png
VOC2012/val/JPEGImages/maksssksksss682.png
VOC2012/val/JPEGImages/maksssksksss683.png
VOC2012/val/JPEGImages/maksssksksss684.png
VOC2012/val/JPEGImages/maksssksksss685.png
VOC2012/val/JPEGImages/maksssksksss686.png
VOC2012/val/JPEGImages/maksssksksss687.png
VOC2012/val/JPEGImages/maksssksksss688.png
VOC2012/val/JPEGImages/maksssksksss689.png
VOC2012/val/JPEGImages/maksssksksss682.png
VOC2012/val/JPEGImages/maksssksksss683.png
VOC2012/val/JPEGImages/maksssksksss685.png
VOC2012/val/JPEGImages/maksssksksss686.png
VOC2012/val/JPEGImages/maksssksksss696.png
VOC2012/val/JPEGImages/maksssksksss70.png
VOC2012/val/JPEGImages/maksssksksss700.png
VOC2012/val/JPEGImages/maksssksksss701.png
VOC2012/val/JPEGImages/maksssksksss702.png
VOC2012/val/JPEGImages/maksssksksss703.png
VOC2012/val/JPEGImages/maksssksksss704.png
VOC2012/val/JPEGImages/maksssksksss705.png
VOC2012/val/JPEGImages/maksssksksss706.png
VOC2012/val/JPEGImages/maksssksksss707.png
VOC2012/val/JPEGImages/maksssksksss708.png
VOC2012/val/JPEGImages/maksssksksss709.png
VOC2012/val/JPEGImages/maksssksksss703.png
VOC2012/val/JPEGImages/maksssksksss709.png
VOC2012/val/JPEGImages/maksssksksss71.png
VOC2012/val/JPEGImages/maksssksksss710.png
VOC2012/val/JPEGImages/maksssksksss711.png
VOC2012/val/JPEGImages/maksssksksss712.png
VOC2012/val/JPEGImages/maksssksksss713.png
VOC2012/val/JPEGImages/maksssksksss714.png
VOC2012/val/JPEGImages/maksssksksss715.png
VOC2012/val/JPEGImages/maksssksksss716.png
VOC2012/val/JPEGImages/maksssksksss717.png
VOC2012/val/JPEGImages/maksssksksss718.png
VOC2012/val/JPEGImages/maksssksksss719.png
VOC2012/val/JPEGImages/maksssksksss711.png
VOC2012/val/JPEGImages/maksssksksss720.png
VOC2012/val/JPEGImages/maksssksksss747.png
VOC2012/val/JPEGImages/maksssksksss75.png
VOC2012/val/JPEGImages/maksssksksss750.png
VOC2012/val/JPEGImages/maksssksksss751.png
VOC2012/val/JPEGImages/maksssksksss752.png
VOC2012/val/JPEGImages/maksssksksss753.png
VOC2012/val/JPEGImages/maksssksksss754.png
VOC2012/val/JPEGImages/maksssksksss755.png
VOC2012/val/JPEGImages/maksssksksss756.png
